<?xml version="1.0" encoding="UTF-8" standalone="no"?>
<svg
	style="enable-background:new 0 0 464.585 464.585;"
	viewBox="0 0 464.585 464.585"
	y="0px"
	x="0px"
	id="Capa_1"
	version="1.1"><metadata
	id="metadata27"><rdf:RDF><cc:Work
	rdf:about=""><dc:format>image/svg+xml</dc:format><dc:type
	rdf:resource="http://purl.org/dc/dcmitype/StillImage" /><dc:title></dc:title></cc:Work></rdf:RDF></metadata><defs
	id="defs25" /><g
	id="g3"><path
	id="path5"
	d="M464.585,393.312L377.122,78.297L301.73,99.229l8.329,29.998h-83.857V87.446h-78.243v30.92h-42.373V50.207H0v364.17h90.586   h15h42.373h15h48.243h15h98.153V180.715l64.838,233.528L464.585,393.312z M162.959,102.446h48.243v37.147h-48.243V102.446z    M162.959,201.81h48.243v170.575h-48.243V201.81z M162.959,186.81v-8.608h48.243v8.608H162.959z M162.959,163.202v-8.609h48.243   v8.609H162.959z M90.586,370.189H15V94.199h75.586V370.189z M90.586,65.207v13.992H15V65.207H90.586z M15,399.378v-14.189h75.586   v14.189H15z M147.959,399.378h-42.373V133.366h42.373V399.378z M162.959,399.378v-11.993h48.243v11.993H162.959z M309.355,399.378   h-83.153V144.226h83.153V399.378z M399.634,395.778l-52.742-189.961l46.485-12.907l52.742,189.961L399.634,395.778z    M342.879,191.364l-4.133-14.884l46.485-12.907l4.133,14.884L342.879,191.364z M366.681,96.762l14.537,52.358l-46.485,12.907   l-14.537-52.358L366.681,96.762z" /><rect
	id="rect7"
	height="15"
	width="48.315"
	y="160.457"
	x="243.621" /><rect
	id="rect9"
	height="15"
	width="48.315"
	y="186.81"
	x="243.621" /><rect
	id="rect11"
	height="15"
	width="48.315"
	y="213.164"
	x="243.621" /><rect
	id="rect13"
	height="15"
	width="48.315"
	y="365.797"
	x="243.621" /><rect
	id="rect15"
	height="25.255"
	width="15"
	y="272.274"
	x="119.272" /><rect
	id="rect17"
	height="57.099"
	width="15"
	y="311.805"
	x="119.272" /><rect
	id="rect19"
	height="68.081"
	width="15"
	y="189.919"
	x="119.272" /><rect
	id="rect21"
	height="26.354"
	width="15"
	y="150.387"
	x="119.272" /></g>
</svg>